Compute and Visualize Pairwise Semantic Distance Relationships in Ordered and Unordered Language Samples • SemanticDistance
…
Grandfather_Passage: Grandfather Passage – a standardized reading passage, unsplit

GP <- tidyr::separate_rows(Grandfather_Passage, mytext, sep=" ")
head(GP, n=50)
#> # A tibble: 50 × 1
#>    mytext      
#>    <chr>       
#>  1 You         
#>  2 wish        
#>  3 to          
#>  4 know        
#>  5 about       
#>  6 my          
#>  7 grandfather.
#>  8 Well,       
#>  9 he          
#> 10 is          
#> # ℹ 40 more rows
…
